# Blender v2.76 (sub 0) OBJ File: 'building5.blend'
# www.blender.org
mtllib b3.mtl
o Cube
v -48.000027 -47.999992 -96.000000
v 47.999985 47.999989 -96.000000
v 47.999992 -47.999992 -96.000000
v -47.999996 144.000031 -96.000008
v 48.000004 143.999969 -96.000015
v -48.000027 -143.999969 -95.999977
v 47.999985 -144.000000 -95.999977
v -144.000031 -47.999985 -96.000000
v -144.000031 -143.999985 -95.999977
v 144.000015 47.999985 -96.000015
v 143.999985 -48.000004 -96.000015
v 144.000015 143.999969 -96.000023
v 143.999985 -144.000015 -95.999992
v -48.000015 -47.999977 0.000000
v -48.000015 -143.999969 0.000023
v -144.000046 -47.999973 0.000000
v -144.000015 48.000004 -96.000000
v -144.000046 -143.999969 0.000023
v 144.000015 143.999985 -0.000023
v 48.000015 143.999969 -0.000015
v 48.000004 47.999996 0.000000
v 144.000015 47.999985 -0.000015
v 48.000008 -47.999981 0.000000
v 48.000008 -144.000000 0.000023
v 143.999985 -47.999992 -0.000015
v 143.999985 -144.000000 0.000015
v -47.999996 48.000015 -96.000000
v -144.000046 144.000015 -96.000000
v -47.999996 144.000031 -0.000008
v -47.999992 48.000004 0.000000
v -144.000015 48.000004 0.000000
v -144.000046 144.000015 0.000000
vt 0.494792 0.744792
vt 0.255208 0.744792
vt 0.255208 0.505208
vt 0.500000 0.750000
vt 0.500000 1.000000
vt 0.250000 1.000000
vt 0.755208 0.755208
vt 0.994792 0.755208
vt 0.994792 0.994792
vt 0.750000 0.750000
vt 0.750000 1.000000
vt 0.250000 0.750000
vt 0.000000 0.750000
vt 0.494792 0.505208
vt 0.755208 0.994792
vt 0.000000 1.000000
vn -0.000000 0.000000 1.000000
vn 0.000000 -1.000000 0.000000
vn 0.000000 1.000000 -0.000000
vn -1.000000 -0.000000 -0.000000
vn 1.000000 -0.000000 0.000000
usemtl Material
s off
f 3/1/1 2/2/1 27/3/1
f 13/4/2 26/5/2 24/6/2
f 1/4/3 14/5/3 23/6/3
f 27/7/1 2/8/1 5/9/1
f 23/4/1 14/10/1 15/11/1
f 9/4/4 18/5/4 16/6/4
f 10/4/5 22/5/5 25/6/5
f 14/10/1 16/11/1 18/5/1
f 15/4/2 6/5/2 7/6/2
f 8/6/3 16/12/3 14/4/3
f 6/4/2 15/5/2 18/6/2
f 24/10/1 26/11/1 25/5/1
f 20/4/1 21/10/1 22/11/1
f 23/10/1 25/11/1 22/5/1
f 11/4/5 25/5/5 26/6/5
f 12/4/5 19/5/5 22/6/5
f 5/4/3 20/5/3 19/6/3
f 2/13/4 3/12/4 23/6/4
f 5/12/4 2/4/4 21/5/4
f 1/7/1 27/8/1 17/9/1
f 17/4/4 31/5/4 32/6/4
f 31/11/1 30/5/1 29/4/1
f 27/4/2 30/5/2 31/6/2
f 27/13/5 4/12/5 29/6/5
f 28/4/3 32/5/3 29/6/3
f 1/14/1 3/1/1 27/3/1
f 7/12/2 13/4/2 24/6/2
f 3/12/3 1/4/3 23/6/3
f 4/15/1 27/7/1 5/9/1
f 24/5/1 23/4/1 15/11/1
f 8/12/4 9/4/4 16/6/4
f 11/12/5 10/4/5 25/6/5
f 15/4/1 14/10/1 18/5/1
f 24/12/2 15/4/2 7/6/2
f 1/5/3 8/6/3 14/4/3
f 9/12/2 6/4/2 18/6/2
f 23/4/1 24/10/1 25/5/1
f 19/5/1 20/4/1 22/11/1
f 21/4/1 23/10/1 22/5/1
f 13/12/5 11/4/5 26/6/5
f 10/12/5 12/4/5 22/6/5
f 12/12/3 5/4/3 19/6/3
f 21/16/4 2/13/4 23/6/4
f 20/6/4 5/12/4 21/5/4
f 8/15/1 1/7/1 17/9/1
f 28/12/4 17/4/4 32/6/4
f 32/10/1 31/11/1 29/4/1
f 17/12/2 27/4/2 31/6/2
f 30/16/5 27/13/5 29/6/5
f 4/12/3 28/4/3 29/6/3
