info face="Fixedsys" size=48 bold=0 italic=0 charset="" unicode=1 stretchH=100 smooth=1 aa=1 padding=2,2,2,2 spacing=2,2 outline=0
common lineHeight=45 base=36 scaleW=512 scaleH=512 pages=1 packed=0 alphaChnl=0 redChnl=4 greenChnl=4 blueChnl=4
page id=0 file="font48_0.png"
chars count=197
char id=32   x=156   y=303   width=76    height=5     xoffset=-26   yoffset=42    xadvance=24    page=0  chnl=15
char id=33   x=357   y=225   width=16    height=31    xoffset=4     yoffset=7     xadvance=24    page=0  chnl=15
char id=34   x=177   y=285   width=22    height=13    xoffset=1     yoffset=7     xadvance=24    page=0  chnl=15
char id=35   x=81    y=162   width=25    height=31    xoffset=1     yoffset=7     xadvance=24    page=0  chnl=15
char id=36   x=54    y=0     width=22    height=43    xoffset=1     yoffset=1     xadvance=24    page=0  chnl=15
char id=37   x=468   y=42    width=28    height=37    xoffset=-2    yoffset=4     xadvance=24    page=0  chnl=15
char id=38   x=108   y=162   width=25    height=31    xoffset=1     yoffset=7     xadvance=24    page=0  chnl=15
char id=39   x=498   y=42    width=10    height=13    xoffset=7     yoffset=7     xadvance=24    page=0  chnl=15
char id=40   x=0     y=129   width=16    height=37    xoffset=4     yoffset=7     xadvance=24    page=0  chnl=15
char id=41   x=18    y=129   width=16    height=37    xoffset=4     yoffset=7     xadvance=24    page=0  chnl=15
char id=42   x=0     y=294   width=25    height=19    xoffset=1     yoffset=13    xadvance=24    page=0  chnl=15
char id=43   x=27    y=294   width=22    height=19    xoffset=1     yoffset=13    xadvance=24    page=0  chnl=15
char id=44   x=108   y=288   width=13    height=16    xoffset=7     yoffset=28    xadvance=24    page=0  chnl=15
char id=45   x=417   y=279   width=22    height=7     xoffset=1     yoffset=19    xadvance=24    page=0  chnl=15
char id=46   x=327   y=285   width=13    height=10    xoffset=7     yoffset=28    xadvance=24    page=0  chnl=15
char id=47   x=357   y=120   width=22    height=34    xoffset=1     yoffset=7     xadvance=24    page=0  chnl=15
char id=48   x=435   y=153   width=22    height=31    xoffset=4     yoffset=7     xadvance=24    page=0  chnl=15
char id=49   x=336   y=225   width=19    height=31    xoffset=1     yoffset=7     xadvance=24    page=0  chnl=15
char id=50   x=483   y=153   width=22    height=31    xoffset=1     yoffset=7     xadvance=24    page=0  chnl=15
char id=51   x=0     y=201   width=22    height=31    xoffset=1     yoffset=7     xadvance=24    page=0  chnl=15
char id=52   x=0     y=168   width=25    height=31    xoffset=1     yoffset=7     xadvance=24    page=0  chnl=15
char id=53   x=24    y=201   width=22    height=31    xoffset=1     yoffset=7     xadvance=24    page=0  chnl=15
char id=54   x=48    y=201   width=22    height=31    xoffset=1     yoffset=7     xadvance=24    page=0  chnl=15
char id=55   x=72    y=198   width=22    height=31    xoffset=1     yoffset=7     xadvance=24    page=0  chnl=15
char id=56   x=96    y=228   width=22    height=31    xoffset=1     yoffset=7     xadvance=24    page=0  chnl=15
char id=57   x=96    y=195   width=22    height=31    xoffset=1     yoffset=7     xadvance=24    page=0  chnl=15
char id=58   x=495   y=219   width=13    height=25    xoffset=7     yoffset=13    xadvance=24    page=0  chnl=15
char id=59   x=495   y=120   width=13    height=31    xoffset=7     yoffset=13    xadvance=24    page=0  chnl=15
char id=60   x=168   y=192   width=22    height=31    xoffset=1     yoffset=7     xadvance=24    page=0  chnl=15
char id=61   x=201   y=285   width=22    height=13    xoffset=1     yoffset=16    xadvance=24    page=0  chnl=15
char id=62   x=216   y=192   width=22    height=31    xoffset=1     yoffset=7     xadvance=24    page=0  chnl=15
char id=63   x=240   y=192   width=22    height=31    xoffset=1     yoffset=7     xadvance=24    page=0  chnl=15
char id=64   x=435   y=120   width=28    height=31    xoffset=-2    yoffset=7     xadvance=24    page=0  chnl=15
char id=65   x=264   y=192   width=22    height=31    xoffset=1     yoffset=7     xadvance=24    page=0  chnl=15
char id=66   x=288   y=192   width=22    height=31    xoffset=1     yoffset=7     xadvance=24    page=0  chnl=15
char id=67   x=312   y=192   width=22    height=31    xoffset=1     yoffset=7     xadvance=24    page=0  chnl=15
char id=68   x=336   y=192   width=22    height=31    xoffset=1     yoffset=7     xadvance=24    page=0  chnl=15
char id=69   x=360   y=192   width=22    height=31    xoffset=1     yoffset=7     xadvance=24    page=0  chnl=15
char id=70   x=288   y=225   width=22    height=31    xoffset=1     yoffset=7     xadvance=24    page=0  chnl=15
char id=71   x=264   y=225   width=22    height=31    xoffset=1     yoffset=7     xadvance=24    page=0  chnl=15
char id=72   x=240   y=225   width=22    height=31    xoffset=1     yoffset=7     xadvance=24    page=0  chnl=15
char id=73   x=393   y=222   width=16    height=31    xoffset=4     yoffset=7     xadvance=24    page=0  chnl=15
char id=74   x=216   y=225   width=22    height=31    xoffset=1     yoffset=7     xadvance=24    page=0  chnl=15
char id=75   x=192   y=225   width=22    height=31    xoffset=1     yoffset=7     xadvance=24    page=0  chnl=15
char id=76   x=144   y=228   width=22    height=31    xoffset=1     yoffset=7     xadvance=24    page=0  chnl=15
char id=77   x=162   y=159   width=25    height=31    xoffset=1     yoffset=7     xadvance=24    page=0  chnl=15
char id=78   x=189   y=159   width=25    height=31    xoffset=1     yoffset=7     xadvance=24    page=0  chnl=15
char id=79   x=291   y=159   width=22    height=31    xoffset=1     yoffset=7     xadvance=24    page=0  chnl=15
char id=80   x=408   y=189   width=22    height=31    xoffset=1     yoffset=7     xadvance=24    page=0  chnl=15
char id=81   x=204   y=84    width=22    height=37    xoffset=1     yoffset=7     xadvance=24    page=0  chnl=15
char id=82   x=72    y=231   width=22    height=31    xoffset=1     yoffset=7     xadvance=24    page=0  chnl=15
char id=83   x=48    y=234   width=22    height=31    xoffset=1     yoffset=7     xadvance=24    page=0  chnl=15
char id=84   x=480   y=186   width=22    height=31    xoffset=1     yoffset=7     xadvance=24    page=0  chnl=15
char id=85   x=456   y=186   width=22    height=31    xoffset=1     yoffset=7     xadvance=24    page=0  chnl=15
char id=86   x=432   y=186   width=22    height=31    xoffset=1     yoffset=7     xadvance=24    page=0  chnl=15
char id=87   x=216   y=159   width=25    height=31    xoffset=1     yoffset=7     xadvance=24    page=0  chnl=15
char id=88   x=384   y=189   width=22    height=31    xoffset=1     yoffset=7     xadvance=24    page=0  chnl=15
char id=89   x=192   y=192   width=22    height=31    xoffset=1     yoffset=7     xadvance=24    page=0  chnl=15
char id=90   x=144   y=195   width=22    height=31    xoffset=1     yoffset=7     xadvance=24    page=0  chnl=15
char id=91   x=264   y=42    width=16    height=40    xoffset=4     yoffset=7     xadvance=24    page=0  chnl=15
char id=92   x=333   y=123   width=22    height=34    xoffset=1     yoffset=7     xadvance=24    page=0  chnl=15
char id=93   x=282   y=42    width=16    height=40    xoffset=4     yoffset=7     xadvance=24    page=0  chnl=15
char id=94   x=225   y=285   width=22    height=13    xoffset=1     yoffset=1     xadvance=24    page=0  chnl=15
char id=95   x=357   y=285   width=28    height=7     xoffset=-2    yoffset=40    xadvance=24    page=0  chnl=15
char id=96   x=249   y=285   width=16    height=13    xoffset=4     yoffset=1     xadvance=24    page=0  chnl=15
char id=97   x=312   y=258   width=22    height=25    xoffset=1     yoffset=13    xadvance=24    page=0  chnl=15
char id=98   x=459   y=153   width=22    height=31    xoffset=1     yoffset=7     xadvance=24    page=0  chnl=15
char id=99   x=240   y=258   width=22    height=25    xoffset=1     yoffset=13    xadvance=24    page=0  chnl=15
char id=100  x=168   y=225   width=22    height=31    xoffset=1     yoffset=7     xadvance=24    page=0  chnl=15
char id=101  x=144   y=261   width=22    height=25    xoffset=1     yoffset=13    xadvance=24    page=0  chnl=15
char id=102  x=387   y=156   width=22    height=31    xoffset=1     yoffset=7     xadvance=24    page=0  chnl=15
char id=103  x=117   y=126   width=22    height=34    xoffset=1     yoffset=13    xadvance=24    page=0  chnl=15
char id=104  x=363   y=156   width=22    height=31    xoffset=1     yoffset=7     xadvance=24    page=0  chnl=15
char id=105  x=165   y=123   width=22    height=34    xoffset=1     yoffset=4     xadvance=24    page=0  chnl=15
char id=106  x=78    y=0     width=19    height=43    xoffset=1     yoffset=4     xadvance=24    page=0  chnl=15
char id=107  x=339   y=159   width=22    height=31    xoffset=1     yoffset=7     xadvance=24    page=0  chnl=15
char id=108  x=315   y=159   width=22    height=31    xoffset=1     yoffset=7     xadvance=24    page=0  chnl=15
char id=109  x=468   y=219   width=25    height=25    xoffset=1     yoffset=13    xadvance=24    page=0  chnl=15
char id=110  x=216   y=258   width=22    height=25    xoffset=1     yoffset=13    xadvance=24    page=0  chnl=15
char id=111  x=120   y=261   width=22    height=25    xoffset=1     yoffset=13    xadvance=24    page=0  chnl=15
char id=112  x=189   y=123   width=22    height=34    xoffset=1     yoffset=13    xadvance=24    page=0  chnl=15
char id=113  x=213   y=123   width=22    height=34    xoffset=1     yoffset=13    xadvance=24    page=0  chnl=15
char id=114  x=336   y=258   width=22    height=25    xoffset=1     yoffset=13    xadvance=24    page=0  chnl=15
char id=115  x=24    y=267   width=22    height=25    xoffset=1     yoffset=13    xadvance=24    page=0  chnl=15
char id=116  x=267   y=159   width=22    height=31    xoffset=1     yoffset=7     xadvance=24    page=0  chnl=15
char id=117  x=168   y=258   width=22    height=25    xoffset=1     yoffset=13    xadvance=24    page=0  chnl=15
char id=118  x=360   y=258   width=22    height=25    xoffset=1     yoffset=13    xadvance=24    page=0  chnl=15
char id=119  x=441   y=219   width=25    height=25    xoffset=1     yoffset=13    xadvance=24    page=0  chnl=15
char id=120  x=72    y=264   width=22    height=25    xoffset=1     yoffset=13    xadvance=24    page=0  chnl=15
char id=121  x=66    y=126   width=25    height=34    xoffset=-2    yoffset=13    xadvance=24    page=0  chnl=15
char id=122  x=288   y=258   width=22    height=25    xoffset=1     yoffset=13    xadvance=24    page=0  chnl=15
char id=123  x=489   y=81    width=19    height=37    xoffset=1     yoffset=7     xadvance=24    page=0  chnl=15
char id=124  x=336   y=42    width=10    height=40    xoffset=7     yoffset=7     xadvance=24    page=0  chnl=15
char id=125  x=468   y=81    width=19    height=37    xoffset=4     yoffset=7     xadvance=24    page=0  chnl=15
char id=126  x=123   y=288   width=28    height=13    xoffset=-2    yoffset=7     xadvance=24    page=0  chnl=15
char id=127  x=24    y=234   width=22    height=31    xoffset=1     yoffset=7     xadvance=24    page=0  chnl=15
char id=129  x=312   y=297   width=76    height=5     xoffset=-26   yoffset=42    xadvance=24    page=0  chnl=15
char id=141  x=390   y=294   width=76    height=5     xoffset=-26   yoffset=42    xadvance=24    page=0  chnl=15
char id=143  x=234   y=300   width=76    height=5     xoffset=-26   yoffset=42    xadvance=24    page=0  chnl=15
char id=144  x=0     y=315   width=76    height=5     xoffset=-26   yoffset=42    xadvance=24    page=0  chnl=15
char id=157  x=78    y=315   width=76    height=5     xoffset=-26   yoffset=42    xadvance=24    page=0  chnl=15
char id=160  x=156   y=310   width=76    height=5     xoffset=-26   yoffset=42    xadvance=24    page=0  chnl=15
char id=161  x=375   y=225   width=16    height=31    xoffset=4     yoffset=16    xadvance=24    page=0  chnl=15
char id=162  x=381   y=120   width=22    height=34    xoffset=1     yoffset=7     xadvance=24    page=0  chnl=15
char id=163  x=54    y=165   width=25    height=31    xoffset=-2    yoffset=7     xadvance=24    page=0  chnl=15
char id=164  x=408   y=255   width=22    height=22    xoffset=1     yoffset=10    xadvance=24    page=0  chnl=15
char id=165  x=0     y=234   width=22    height=31    xoffset=1     yoffset=7     xadvance=24    page=0  chnl=15
char id=166  x=495   y=0     width=10    height=40    xoffset=7     yoffset=7     xadvance=24    page=0  chnl=15
char id=167  x=216   y=42    width=22    height=40    xoffset=1     yoffset=7     xadvance=24    page=0  chnl=15
char id=168  x=303   y=285   width=22    height=10    xoffset=1     yoffset=4     xadvance=24    page=0  chnl=15
char id=169  x=405   y=120   width=28    height=31    xoffset=-2    yoffset=7     xadvance=24    page=0  chnl=15
char id=170  x=384   y=258   width=22    height=25    xoffset=1     yoffset=7     xadvance=24    page=0  chnl=15
char id=171  x=462   y=246   width=28    height=19    xoffset=-2    yoffset=19    xadvance=24    page=0  chnl=15
char id=172  x=153   y=288   width=22    height=13    xoffset=1     yoffset=19    xadvance=24    page=0  chnl=15
char id=173  x=441   y=270   width=22    height=7     xoffset=1     yoffset=19    xadvance=24    page=0  chnl=15
char id=174  x=465   y=120   width=28    height=31    xoffset=-2    yoffset=7     xadvance=24    page=0  chnl=15
char id=175  x=387   y=285   width=28    height=7     xoffset=-2    yoffset=-2    xadvance=24    page=0  chnl=15
char id=176  x=84    y=291   width=22    height=16    xoffset=1     yoffset=4     xadvance=24    page=0  chnl=15
char id=177  x=48    y=267   width=22    height=25    xoffset=1     yoffset=13    xadvance=24    page=0  chnl=15
char id=178  x=492   y=246   width=16    height=19    xoffset=4     yoffset=7     xadvance=24    page=0  chnl=15
char id=179  x=51    y=294   width=16    height=19    xoffset=4     yoffset=7     xadvance=24    page=0  chnl=15
char id=180  x=267   y=285   width=16    height=13    xoffset=4     yoffset=1     xadvance=24    page=0  chnl=15
char id=181  x=36    y=129   width=28    height=34    xoffset=-2    yoffset=13    xadvance=24    page=0  chnl=15
char id=182  x=99    y=0     width=25    height=40    xoffset=1     yoffset=7     xadvance=24    page=0  chnl=15
char id=183  x=342   y=285   width=13    height=10    xoffset=7     yoffset=16    xadvance=24    page=0  chnl=15
char id=184  x=285   y=285   width=16    height=13    xoffset=4     yoffset=34    xadvance=24    page=0  chnl=15
char id=185  x=69    y=294   width=13    height=19    xoffset=4     yoffset=7     xadvance=24    page=0  chnl=15
char id=186  x=192   y=258   width=22    height=25    xoffset=1     yoffset=7     xadvance=24    page=0  chnl=15
char id=187  x=432   y=249   width=28    height=19    xoffset=-2    yoffset=19    xadvance=24    page=0  chnl=15
char id=188  x=0     y=90    width=28    height=37    xoffset=-2    yoffset=4     xadvance=24    page=0  chnl=15
char id=189  x=30    y=90    width=28    height=37    xoffset=-2    yoffset=4     xadvance=24    page=0  chnl=15
char id=190  x=348   y=42    width=28    height=37    xoffset=-2    yoffset=4     xadvance=24    page=0  chnl=15
char id=191  x=312   y=225   width=22    height=31    xoffset=1     yoffset=16    xadvance=24    page=0  chnl=15
char id=192  x=168   y=42    width=22    height=40    xoffset=1     yoffset=-2    xadvance=24    page=0  chnl=15
char id=193  x=144   y=42    width=22    height=40    xoffset=1     yoffset=-2    xadvance=24    page=0  chnl=15
char id=194  x=120   y=42    width=22    height=40    xoffset=1     yoffset=-2    xadvance=24    page=0  chnl=15
char id=195  x=126   y=0     width=25    height=40    xoffset=1     yoffset=-2    xadvance=24    page=0  chnl=15
char id=196  x=72    y=45    width=22    height=40    xoffset=1     yoffset=-2    xadvance=24    page=0  chnl=15
char id=197  x=48    y=45    width=22    height=40    xoffset=1     yoffset=-2    xadvance=24    page=0  chnl=15
char id=198  x=27    y=168   width=25    height=31    xoffset=1     yoffset=7     xadvance=24    page=0  chnl=15
char id=199  x=24    y=48    width=22    height=40    xoffset=1     yoffset=7     xadvance=24    page=0  chnl=15
char id=200  x=0     y=48    width=22    height=40    xoffset=1     yoffset=-2    xadvance=24    page=0  chnl=15
char id=201  x=471   y=0     width=22    height=40    xoffset=1     yoffset=-2    xadvance=24    page=0  chnl=15
char id=202  x=447   y=0     width=22    height=40    xoffset=1     yoffset=-2    xadvance=24    page=0  chnl=15
char id=203  x=423   y=0     width=22    height=40    xoffset=1     yoffset=-2    xadvance=24    page=0  chnl=15
char id=204  x=318   y=42    width=16    height=40    xoffset=4     yoffset=-2    xadvance=24    page=0  chnl=15
char id=205  x=300   y=42    width=16    height=40    xoffset=4     yoffset=-2    xadvance=24    page=0  chnl=15
char id=206  x=399   y=0     width=22    height=40    xoffset=1     yoffset=-2    xadvance=24    page=0  chnl=15
char id=207  x=96    y=45    width=22    height=40    xoffset=1     yoffset=-2    xadvance=24    page=0  chnl=15
char id=208  x=135   y=162   width=25    height=31    xoffset=-2    yoffset=7     xadvance=24    page=0  chnl=15
char id=209  x=180   y=0     width=25    height=40    xoffset=1     yoffset=-2    xadvance=24    page=0  chnl=15
char id=210  x=375   y=0     width=22    height=40    xoffset=1     yoffset=-2    xadvance=24    page=0  chnl=15
char id=211  x=327   y=0     width=22    height=40    xoffset=1     yoffset=-2    xadvance=24    page=0  chnl=15
char id=212  x=303   y=0     width=22    height=40    xoffset=1     yoffset=-2    xadvance=24    page=0  chnl=15
char id=213  x=153   y=0     width=25    height=40    xoffset=1     yoffset=-2    xadvance=24    page=0  chnl=15
char id=214  x=255   y=0     width=22    height=40    xoffset=1     yoffset=-2    xadvance=24    page=0  chnl=15
char id=215  x=264   y=258   width=22    height=25    xoffset=1     yoffset=10    xadvance=24    page=0  chnl=15
char id=216  x=411   y=153   width=22    height=31    xoffset=1     yoffset=7     xadvance=24    page=0  chnl=15
char id=217  x=231   y=0     width=22    height=40    xoffset=1     yoffset=-2    xadvance=24    page=0  chnl=15
char id=218  x=207   y=0     width=22    height=40    xoffset=1     yoffset=-2    xadvance=24    page=0  chnl=15
char id=219  x=351   y=0     width=22    height=40    xoffset=1     yoffset=-2    xadvance=24    page=0  chnl=15
char id=220  x=279   y=0     width=22    height=40    xoffset=1     yoffset=-2    xadvance=24    page=0  chnl=15
char id=221  x=240   y=42    width=22    height=40    xoffset=1     yoffset=-2    xadvance=24    page=0  chnl=15
char id=222  x=120   y=195   width=22    height=31    xoffset=1     yoffset=7     xadvance=24    page=0  chnl=15
char id=223  x=243   y=159   width=22    height=31    xoffset=1     yoffset=7     xadvance=24    page=0  chnl=15
char id=224  x=420   y=81    width=22    height=37    xoffset=1     yoffset=1     xadvance=24    page=0  chnl=15
char id=225  x=396   y=81    width=22    height=37    xoffset=1     yoffset=1     xadvance=24    page=0  chnl=15
char id=226  x=372   y=81    width=22    height=37    xoffset=1     yoffset=1     xadvance=24    page=0  chnl=15
char id=227  x=438   y=42    width=28    height=37    xoffset=-2    yoffset=1     xadvance=24    page=0  chnl=15
char id=228  x=309   y=123   width=22    height=34    xoffset=1     yoffset=4     xadvance=24    page=0  chnl=15
char id=229  x=348   y=81    width=22    height=37    xoffset=1     yoffset=1     xadvance=24    page=0  chnl=15
char id=230  x=411   y=222   width=28    height=25    xoffset=-2    yoffset=13    xadvance=24    page=0  chnl=15
char id=231  x=141   y=123   width=22    height=34    xoffset=1     yoffset=13    xadvance=24    page=0  chnl=15
char id=232  x=324   y=84    width=22    height=37    xoffset=1     yoffset=1     xadvance=24    page=0  chnl=15
char id=233  x=300   y=84    width=22    height=37    xoffset=1     yoffset=1     xadvance=24    page=0  chnl=15
char id=234  x=276   y=84    width=22    height=37    xoffset=1     yoffset=1     xadvance=24    page=0  chnl=15
char id=235  x=285   y=123   width=22    height=34    xoffset=1     yoffset=4     xadvance=24    page=0  chnl=15
char id=236  x=252   y=84    width=22    height=37    xoffset=1     yoffset=1     xadvance=24    page=0  chnl=15
char id=237  x=228   y=84    width=22    height=37    xoffset=1     yoffset=1     xadvance=24    page=0  chnl=15
char id=238  x=444   y=81    width=22    height=37    xoffset=1     yoffset=1     xadvance=24    page=0  chnl=15
char id=239  x=93    y=126   width=22    height=34    xoffset=1     yoffset=4     xadvance=24    page=0  chnl=15
char id=240  x=120   y=228   width=22    height=31    xoffset=1     yoffset=7     xadvance=24    page=0  chnl=15
char id=241  x=408   y=42    width=28    height=37    xoffset=-2    yoffset=1     xadvance=24    page=0  chnl=15
char id=242  x=180   y=84    width=22    height=37    xoffset=1     yoffset=1     xadvance=24    page=0  chnl=15
char id=243  x=156   y=84    width=22    height=37    xoffset=1     yoffset=1     xadvance=24    page=0  chnl=15
char id=244  x=132   y=84    width=22    height=37    xoffset=1     yoffset=1     xadvance=24    page=0  chnl=15
char id=245  x=378   y=42    width=28    height=37    xoffset=-2    yoffset=1     xadvance=24    page=0  chnl=15
char id=246  x=261   y=123   width=22    height=34    xoffset=1     yoffset=4     xadvance=24    page=0  chnl=15
char id=247  x=0     y=267   width=22    height=25    xoffset=1     yoffset=10    xadvance=24    page=0  chnl=15
char id=248  x=96    y=261   width=22    height=25    xoffset=1     yoffset=13    xadvance=24    page=0  chnl=15
char id=249  x=108   y=87    width=22    height=37    xoffset=1     yoffset=1     xadvance=24    page=0  chnl=15
char id=250  x=84    y=87    width=22    height=37    xoffset=1     yoffset=1     xadvance=24    page=0  chnl=15
char id=251  x=60    y=87    width=22    height=37    xoffset=1     yoffset=1     xadvance=24    page=0  chnl=15
char id=252  x=237   y=123   width=22    height=34    xoffset=1     yoffset=4     xadvance=24    page=0  chnl=15
char id=253  x=0     y=0     width=25    height=46    xoffset=-2    yoffset=1     xadvance=24    page=0  chnl=15
char id=254  x=192   y=42    width=22    height=40    xoffset=1     yoffset=7     xadvance=24    page=0  chnl=15
char id=255  x=27    y=0     width=25    height=43    xoffset=-2    yoffset=4     xadvance=24    page=0  chnl=15
